…
#I used select here and grouped by Type.
fulldata%>%select('Type', 'Average Heart Rate', 'Max Heart Rate')%>%group_by(Type)

## # A tibble: 50 x 3
## # Groups:   Type [6]
##    Type                         `Average Heart Rate` `Max Heart Rate`
##    <chr>                                       <dbl>            <dbl>
##  1 Indoor Running                              178.               199
##  2 Functional Strength Training                131.               155
##  3 Indoor Running                              184.               199
##  4 Yoga                                        127.               172
##  5 Functional Strength Training                142.               170
##  6 Indoor Running                              171.               197
##  7 Yoga                                        126.               165
##  8 Yoga                                        118.               173
##  9 Yoga                                         75.7               96
## 10 Yoga                                         77.6               98
## # … with 40 more rows

#I created a new column using mutate which was a function of two separate variables in my dataset.
fulldata %>% mutate(activecal_permi = `Active Calories (kcal)`/`Distance (mi)`)%>%mutate(mean_activecal_permi=mean(activecal_permi))

## # A tibble: 50 x 17
##    Date                `Active Calorie… `Distance (mi)` `Resting Calori…
##    <dttm>                         <dbl>           <dbl>            <dbl>
##  1 2020-01-01 00:00:00            207.            2.23             1505.
##  2 2020-01-01 00:00:00            207.            2.23             1505.
##  3 2020-01-02 00:00:00            117.            0.692            1557.
##  4 2020-01-03 00:00:00            462.            3.01             1459.
##  5 2020-01-04 00:00:00            475.            2.63             1589.
##  6 2020-01-05 00:00:00             48.0           2.10             1496.
##  7 2020-01-06 00:00:00            563.            4.22             1530.
##  8 2020-01-07 00:00:00            540.            2.91             1539.
##  9 2020-01-08 00:00:00            236.            1.33             1455.
## 10 2020-01-09 00:00:00            272.            2.13             1479.
## # … with 40 more rows, and 13 more variables: `Steps (count)` <dbl>,
## #   Type <chr>, Time <chr>, Duration <dttm>, Distance <dbl>, `Average Heart
## #   Rate` <dbl>, `Max Heart Rate` <dbl>, `Average Pace` <dttm>, `Average
## #   Speed` <dbl>, `Active Energy` <dbl>, `Total Energy` <dbl>,
## #   activecal_permi <dbl>, mean_activecal_permi <dbl>
…
